…
    ## `summarise()` regrouping output by 'strap_number' (override with `.groups` argument)

    ## # A tibble: 10,000 x 4
    ## # Groups:   strap_number [5,000]
    ##    strap_number estimate        ci_lower ci_upper
    ##           <int> <chr>              <dbl>    <dbl>
    ##  1            1 log_beta0_beta1    2.04     2.04 
    ##  2            1 r.squared          0.902    0.902
    ##  3            2 log_beta0_beta1    2.01     2.01 
    ##  4            2 r.squared          0.904    0.904
    ##  5            3 log_beta0_beta1    1.99     1.99 
    ##  6            3 r.squared          0.920    0.920
    ##  7            4 log_beta0_beta1    2.02     2.02 
    ##  8            4 r.squared          0.904    0.904
    ##  9            5 log_beta0_beta1    2.02     2.02 
    ## 10            5 r.squared          0.917    0.917
    ## # ... with 9,990 more rows
